-------------------------------------------------------------------------------
Test set: com.talentboost.networkofgiving.repository.UserRepositoryTest
-------------------------------------------------------------------------------
Tests run: 2, Failures: 0, Errors: 0, Skipped: 0, Time elapsed: 0.04 s - in com.talentboost.networkofgiving.repository.UserRepositoryTest
